{
  "type": "service_account",
  "project_id": "mapbox-pet",
  "private_key_id": "df5b7b5b33f46822f9695f6b42ed4fb28ae854c9",
  "private_key": "-----BEGIN PRIVATE KEY-----\nMIIEvAIBADANBgkqhkiG9w0BAQEFAASCBKYwggSiAgEAAoIBAQDYxl5plOGk6Kae\nJJ1vlQujkr9LH0mUVsjTkV2isZh2JY/0s6ctJatAepZMEs7NNFQs+pQWf1yHDNw6\nM2fw2b8hesHb36wYbncETjeDGKQ8igQSNMtOG2FYP1lK77969YZujthA5vBYrwWE\nMv7mAqJV8nnetzfUQB5kUtA0o2g7JY4GOXtIUHy0rDCkYUZBtzfMXITut4DYz/Am\ndB96zBLFhFAgZRommNoTno8S47D39ryWZJvbL7+h283rCczT/yfKyevw5rg+cgYD\nFSqkauiGU4qCmtH2FQNG36tNL2e41r6/XzuAwLgMC+mfV6COD0KAymnb0OZPsxrc\nuZZMEgyvAgMBAAECgf8O0YCitwq1uzGondglSIsDI4TwHbNp8ITJ8aX0+S7y5J5y\nm9VRwMF0Ju0fRinc3Tbj3D1DTHGGydpEID96t2fZYgrefOvGv8ZjBPXGgGi5urWM\niQ9cx4JgBfSUqs7sGNyXsiwWQ7MqXMyDvPivwH5YYbry/pNSbw+kzARvlLwLTuWo\nF+Bm0iUuyjzyDe+rXIoxmFmq4eCxSHQWwhcuh2XXJSU0eJ7lAWo8gdzLQzKlvYQ3\n5+/e+GaK7wG7w4eAtRcJLPEnJR0vaxoLXKFsXzfyrtjpe02ymOOyYtdrzQ4RMhxc\nmdz4+tTlokqFXLatO8SVgRNo08cuygg6gtBfQJ0CgYEA9xfXg+i/OW2GH4zOFd/4\na6Mh2b1Id7zf/WLwfBPnMC66/sNNYau/JReEf5uPRqqBFZBonH06cs+8ffKq1dk0\nrbe8StMo5vi7aWhPeflDxIbRYDE6zE+ea+WIsN+DNm3MsAqcdBFD5dA5YZiRj9R6\nDs1K5yaRiPCG73iNoTTtd/MCgYEA4JbAkQw4zjInOYhTFyowxAn/gsehkvxUNndG\nf7WalAsv7SgwNsl2F9iq5nzQ4KYizDMBCfGZjnV2XCec8xSV64uC+2Wcp97W/Dw4\nKNcAfmdZRi9OPYqohHNAeZd5V8sHdEPysGp4XwHPx5bRQ1tFjiSLzR0QvE+PbPXT\nkGahI1UCgYEAn6gOHzOCa67zHOu0Nbo0IAiWVMTTUFsAOA936BRMK3vmY7r6AwQg\nS+04NePj3ftJ0Q8wKP1ZiNnlp1PnQqpIOX8g8RAju6o4HlHCGMQRH6klHIxyu5Uu\nffUgL3kcpUypF46jrPOC9blnekJEu7TE8U+A+H6ZRuxzo8Q3b1RtpDUCgYAy8b9I\np68TBsljAYtni8h4D5SIA+SgxOANYsz5FyazQj5i22TkaJqDGkDZ+6Id81GdZExu\nBwHAEOECUnIFqbvALGtPv2LjqWa23KoYiXyxL5xOkVh8GUHUmZgcfMGnqoRMWUVp\nwxz+4BhTu+BIGSIT9jJIGrm7HYj5PGH7NWyD6QKBgQDJtJAWig5EVKGj9fEpIyDC\nIr2fiIhNKuZ0HCbqdk8o5ux0SJZmYdtfvY7p6x/Vp/e/PfWzP3Zo6cBJqfKFB2D0\n3+KWghfD0JnttuhnwlZRYpRUYpUpOTiW3P+MD6Mq3X8l15EniXIc5ZVHWT1kcEvG\nfV7xPFoDBHYohF44J8qU+Q==\n-----END PRIVATE KEY-----\n",
  "client_email": "firebase-adminsdk-ax2wx@mapbox-pet.iam.gserviceaccount.com",
  "client_id": "114878120718184343308",
  "auth_uri": "https://accounts.google.com/o/oauth2/auth",
  "token_uri": "https://oauth2.googleapis.com/token",
  "auth_provider_x509_cert_url": "https://www.googleapis.com/oauth2/v1/certs",
  "client_x509_cert_url": "https://www.googleapis.com/robot/v1/metadata/x509/firebase-adminsdk-ax2wx%40mapbox-pet.iam.gserviceaccount.com"
}
